INDEX VERSION 1.4+/Users/thales/projeto/apirestjava/api/.metadata/.plugins/org.eclipse.wst.jsdt.core/indexes
1719359311.index
2321413258.index
2802255990.index
1090998488.index
930710877.index
3853512847.index
